{
  "total": 51,
  "per_page": 10,
  "current_page": 1,
  "last_page": 6,
  "next_page_url": "https://docker.chhab.rocks/inquire/api/spaces/Y2lzY29zcGFyazovL3VzL1JPT00vMGMzODJmYzktMDQ0My0zYzUyLWFmMzQtNTFlMWQ5NGIxODA4?page=2",
  "prev_page_url": "",
  "from": 1,
  "to": 10,
  "data": [{
    "_id": "591ba6aa2e7a87000fee480a",
    "_room": "Y2lzY29zcGFyazovL3VzL1JPT00vMGMzODJmYzktMDQ0My0zYzUyLWFmMzQtNTFlMWQ5NGIxODA4",
    "personEmail": "amachhab@cisco.com",
    "personId": "Y2lzY29zcGFyazovL3VzL1BFT1BMRS9kODhiZDc1ZS1iOGMzLTQ4Y2YtYWJjNy01ZWM1Y2JjNzU4YWM",
    "text": "What is the best VW Car?",
    "displayName": "Aman Chhabra",
    "__v": 0,
    "createdOn": "2017-05-17T01:25:26.891Z",
    "answers": [{
      "_id": "591ba6b22e7a87000fee480b",
      "text": "The GTI is the best VW car",
      "displayName": "Aman Chhabra",
      "personId": "Y2lzY29zcGFyazovL3VzL1BFT1BMRS9kODhiZDc1ZS1iOGMzLTQ4Y2YtYWJjNy01ZWM1Y2JjNzU4YWM",
      "personEmail": "amachhab@cisco.com",
      "createdOn": "2017-05-17T01:25:26.886Z",
      "sequence": 1
    }, {
      "_id": "592ca53ed52744000fa72ead",
      "text": "No the Ferrari is the best car.",
      "displayName": "Aman Chhabra",
      "personId": "Y2lzY29zcGFyazovL3VzL1BFT1BMRS9kODhiZDc1ZS1iOGMzLTQ4Y2YtYWJjNy01ZWM1Y2JjNzU4YWM",
      "personEmail": "amachhab@cisco.com",
      "createdOn": "2017-05-29T22:48:30.119Z",
      "sequence": 1
    }],
    "starred": false,
    "answered": true,
    "sequence": 1
  }, {
    "_id": "591ba6cb2e7a87000fee480c",
    "_room": "Y2lzY29zcGFyazovL3VzL1JPT00vMGMzODJmYzktMDQ0My0zYzUyLWFmMzQtNTFlMWQ5NGIxODA4",
    "personEmail": "amachhab@cisco.com",
    "personId": "Y2lzY29zcGFyazovL3VzL1BFT1BMRS9kODhiZDc1ZS1iOGMzLTQ4Y2YtYWJjNy01ZWM1Y2JjNzU4YWM",
    "text": "Should my customers move to the cloud?",
    "displayName": "Aman Chhabra",
    "__v": 0,
    "createdOn": "2017-05-17T01:25:26.891Z",
    "answers": [{
      "_id": "591ba6d22e7a87000fee480d",
      "text": "Yes - I think so!",
      "displayName": "Aman Chhabra",
      "personId": "Y2lzY29zcGFyazovL3VzL1BFT1BMRS9kODhiZDc1ZS1iOGMzLTQ4Y2YtYWJjNy01ZWM1Y2JjNzU4YWM",
      "personEmail": "amachhab@cisco.com",
      "createdOn": "2017-05-17T01:25:26.886Z",
      "sequence": 1
    }, {
      "_id": "591ba6dc2e7a87000fee480e",
      "text": "No it’s too unstable",
      "displayName": "Aman Chhabra",
      "personId": "Y2lzY29zcGFyazovL3VzL1BFT1BMRS9kODhiZDc1ZS1iOGMzLTQ4Y2YtYWJjNy01ZWM1Y2JjNzU4YWM",
      "personEmail": "amachhab@cisco.com",
      "createdOn": "2017-05-17T01:25:26.886Z",
      "sequence": 1
    }, {
      "_id": "591ba6e42e7a87000fee480f",
      "text": "Maybe - depends on SRST requirements…",
      "displayName": "Aman Chhabra",
      "personId": "Y2lzY29zcGFyazovL3VzL1BFT1BMRS9kODhiZDc1ZS1iOGMzLTQ4Y2YtYWJjNy01ZWM1Y2JjNzU4YWM",
      "personEmail": "amachhab@cisco.com",
      "createdOn": "2017-05-17T01:25:26.886Z",
      "sequence": 1
    }],
    "starred": false,
    "answered": true,
    "sequence": 2
  }, {
    "_id": "591ba6f32e7a87000fee4810",
    "_room": "Y2lzY29zcGFyazovL3VzL1JPT00vMGMzODJmYzktMDQ0My0zYzUyLWFmMzQtNTFlMWQ5NGIxODA4",
    "personEmail": "amachhab@cisco.com",
    "personId": "Y2lzY29zcGFyazovL3VzL1BFT1BMRS9kODhiZDc1ZS1iOGMzLTQ4Y2YtYWJjNy01ZWM1Y2JjNzU4YWM",
    "text": "Is IOT the wave of the future?",
    "displayName": "Aman Chhabra",
    "__v": 0,
    "createdOn": "2017-05-17T01:25:26.891Z",
    "answers": [{
      "_id": "591ba6fb2e7a87000fee4811",
      "text": "No I think machine learning is better",
      "displayName": "Aman Chhabra",
      "personId": "Y2lzY29zcGFyazovL3VzL1BFT1BMRS9kODhiZDc1ZS1iOGMzLTQ4Y2YtYWJjNy01ZWM1Y2JjNzU4YWM",
      "personEmail": "amachhab@cisco.com",
      "createdOn": "2017-05-17T01:25:26.886Z",
      "sequence": 1
    }, {
      "_id": "591f7b22979974000feec4b7",
      "text": "Too cool for school",
      "displayName": "Aman Chhabra",
      "personId": "Y2lzY29zcGFyazovL3VzL1BFT1BMRS9kODhiZDc1ZS1iOGMzLTQ4Y2YtYWJjNy01ZWM1Y2JjNzU4YWM",
      "personEmail": "amachhab@cisco.com",
      "createdOn": "2017-05-19T23:09:22.293Z",
      "sequence": 1
    }, {
      "_id": "592f10bd220524000ff8bca4",
      "text": "No it isn't",
      "displayName": "Aman Chhabra",
      "personId": "Y2lzY29zcGFyazovL3VzL1BFT1BMRS9kODhiZDc1ZS1iOGMzLTQ4Y2YtYWJjNy01ZWM1Y2JjNzU4YWM",
      "personEmail": "amachhab@cisco.com",
      "createdOn": "2017-05-31T18:51:41.922Z",
      "sequence": 1
    }],
    "starred": false,
    "answered": true,
    "sequence": 3
  }, {
    "_id": "592f14b9220524000ff8bca5",
    "_room": "Y2lzY29zcGFyazovL3VzL1JPT00vMGMzODJmYzktMDQ0My0zYzUyLWFmMzQtNTFlMWQ5NGIxODA4",
    "personEmail": "amachhab@cisco.com",
    "personId": "Y2lzY29zcGFyazovL3VzL1BFT1BMRS9kODhiZDc1ZS1iOGMzLTQ4Y2YtYWJjNy01ZWM1Y2JjNzU4YWM",
    "text": "When is the VT?",
    "displayName": "Aman Chhabra",
    "__v": 0,
    "createdOn": "2017-05-31T19:08:41.923Z",
    "answers": [],
    "starred": false,
    "answered": false,
    "sequence": 7
  }, {
    "_id": "592f2f97da32a5000ff0d382",
    "_room": "Y2lzY29zcGFyazovL3VzL1JPT00vMGMzODJmYzktMDQ0My0zYzUyLWFmMzQtNTFlMWQ5NGIxODA4",
    "personEmail": "amachhab@cisco.com",
    "personId": "Y2lzY29zcGFyazovL3VzL1BFT1BMRS9kODhiZDc1ZS1iOGMzLTQ4Y2YtYWJjNy01ZWM1Y2JjNzU4YWM",
    "text": "new question",
    "displayName": "Aman Chhabra",
    "__v": 0,
    "createdOn": "2017-05-31T21:03:19.888Z",
    "answers": [{
      "_id": "592f4d2988b933000fd9006a",
      "text": "new answer",
      "displayName": "Aman Chhabra",
      "personId": "Y2lzY29zcGFyazovL3VzL1BFT1BMRS9kODhiZDc1ZS1iOGMzLTQ4Y2YtYWJjNy01ZWM1Y2JjNzU4YWM",
      "personEmail": "amachhab@cisco.com",
      "createdOn": "2017-05-31T23:09:29.126Z",
      "sequence": 1
    }],
    "starred": false,
    "answered": true,
    "sequence": 8
  }, {
    "_id": "592f304fda32a5000ff0d383",
    "_room": "Y2lzY29zcGFyazovL3VzL1JPT00vMGMzODJmYzktMDQ0My0zYzUyLWFmMzQtNTFlMWQ5NGIxODA4",
    "personEmail": "amachhab@cisco.com",
    "personId": "Y2lzY29zcGFyazovL3VzL1BFT1BMRS9kODhiZDc1ZS1iOGMzLTQ4Y2YtYWJjNy01ZWM1Y2JjNzU4YWM",
    "text": "New Question",
    "displayName": "Aman Chhabra",
    "__v": 0,
    "createdOn": "2017-05-31T21:06:23.879Z",
    "answers": [],
    "starred": false,
    "answered": false,
    "sequence": 9
  }, {
    "_id": "592f305cda32a5000ff0d384",
    "_room": "Y2lzY29zcGFyazovL3VzL1JPT00vMGMzODJmYzktMDQ0My0zYzUyLWFmMzQtNTFlMWQ5NGIxODA4",
    "personEmail": "amachhab@cisco.com",
    "personId": "Y2lzY29zcGFyazovL3VzL1BFT1BMRS9kODhiZDc1ZS1iOGMzLTQ4Y2YtYWJjNy01ZWM1Y2JjNzU4YWM",
    "text": "New Question",
    "displayName": "Aman Chhabra",
    "__v": 0,
    "createdOn": "2017-05-31T21:06:36.292Z",
    "answers": [],
    "starred": false,
    "answered": false,
    "sequence": 10
  }, {
    "_id": "592f305cda32a5000ff0d385",
    "_room": "Y2lzY29zcGFyazovL3VzL1JPT00vMGMzODJmYzktMDQ0My0zYzUyLWFmMzQtNTFlMWQ5NGIxODA4",
    "personEmail": "amachhab@cisco.com",
    "personId": "Y2lzY29zcGFyazovL3VzL1BFT1BMRS9kODhiZDc1ZS1iOGMzLTQ4Y2YtYWJjNy01ZWM1Y2JjNzU4YWM",
    "text": "New Question",
    "displayName": "Aman Chhabra",
    "__v": 0,
    "createdOn": "2017-05-31T21:06:36.343Z",
    "answers": [],
    "starred": false,
    "answered": false,
    "sequence": 10
  }, {
    "_id": "592f305cda32a5000ff0d386",
    "_room": "Y2lzY29zcGFyazovL3VzL1JPT00vMGMzODJmYzktMDQ0My0zYzUyLWFmMzQtNTFlMWQ5NGIxODA4",
    "personEmail": "amachhab@cisco.com",
    "personId": "Y2lzY29zcGFyazovL3VzL1BFT1BMRS9kODhiZDc1ZS1iOGMzLTQ4Y2YtYWJjNy01ZWM1Y2JjNzU4YWM",
    "text": "New Question",
    "displayName": "Aman Chhabra",
    "__v": 0,
    "createdOn": "2017-05-31T21:06:36.549Z",
    "answers": [],
    "starred": false,
    "answered": false,
    "sequence": 11
  }, {
    "_id": "592f305cda32a5000ff0d387",
    "_room": "Y2lzY29zcGFyazovL3VzL1JPT00vMGMzODJmYzktMDQ0My0zYzUyLWFmMzQtNTFlMWQ5NGIxODA4",
    "personEmail": "amachhab@cisco.com",
    "personId": "Y2lzY29zcGFyazovL3VzL1BFT1BMRS9kODhiZDc1ZS1iOGMzLTQ4Y2YtYWJjNy01ZWM1Y2JjNzU4YWM",
    "text": "New Question",
    "displayName": "Aman Chhabra",
    "__v": 0,
    "createdOn": "2017-05-31T21:06:36.898Z",
    "answers": [],
    "starred": false,
    "answered": false,
    "sequence": 12
  }]
}
